vertice;x;y
V1;541548,71;7803808,93
V2;541570,61;7803810,17
V3;541579,39;7803810,57
V4;541581,09;7803810,58
V5;541621,19;7803807,23
V6;541668,55;7803803,33
V7;541673,11;7803806,91
V8;541666,13;7803815,83
V9;541652,65;7803825,32
V10;541645,75;7803831,05
V11;541632,99;7803844,37
V12;541615,86;7803854,46
V13;541598,77;7803867,21
V14;541579,11;7803891,39
V15;541571,05;7803888,51
V16;541551,53;7803881,53
V17;541551,34;7803864,39
V18;541553,71;7803852,91
V19;541536,13;7803849,16
V20;541538,19;7803839,44
V21;541538,60;7803837,97
